(kicad_sch (version 20211123) (generator eeschema)

  (uuid e63e39d7-6ac0-4ffd-8aa3-1841a4541b55)

  (paper "A4")

  (lib_symbols
    (symbol "Connector:Conn_01x02_Female" (pin_names (offset 1.016) hide) (in_bom yes) (on_board yes)
      (property "Reference" "J" (id 0) (at 0 2.54 0)
        (effects (font (size 1.27 1.27)))
      )
      (property "Value" "Conn_01x02_Female" (id 1) (at 0 -5.08 0)
        (effects (font (size 1.27 1.27)))
      )
      (property "Footprint" "" (id 2) (at 0 0 0)
        (effects (font (size 1.27 1.27)) hide)
      )
      (property "Datasheet" "~" (id 3) (at 0 0 0)
        (effects (font (size 1.27 1.27)) hide)
      )
      (property "ki_keywords" "connector" (id 4) (at 0 0 0)
        (effects (font (size 1.27 1.27)) hide)
      )
      (property "ki_description" "Generic connector, single row, 01x02, script generated (kicad-library-utils/schlib/autogen/connector/)" (id 5) (at 0 0 0)
        (effects (font (size 1.27 1.27)) hide)
      )
      (property "ki_fp_filters" "Connector*:*_1x??_*" (id 6) (at 0 0 0)
        (effects (font (size 1.27 1.27)) hide)
      )
      (symbol "Conn_01x02_Female_1_1"
        (arc (start 0 -2.032) (mid -0.508 -2.54) (end 0 -3.048)
          (stroke (width 0.1524) (type default) (color 0 0 0 0))
          (fill (type none))
        )
        (polyline
          (pts
            (xy -1.27 -2.54)
            (xy -0.508 -2.54)
          )
          (stroke (width 0.1524) (type default) (color 0 0 0 0))
          (fill (type none))
        )
        (polyline
          (pts
            (xy -1.27 0)
            (xy -0.508 0)
          )
          (stroke (width 0.1524) (type default) (color 0 0 0 0))
          (fill (type none))
        )
        (arc (start 0 0.508) (mid -0.508 0) (end 0 -0.508)
          (stroke (width 0.1524) (type default) (color 0 0 0 0))
          (fill (type none))
        )
        (pin passive line (at -5.08 0 0) (length 3.81)
          (name "Pin_1" (effects (font (size 1.27 1.27))))
          (number "1" (effects (font (size 1.27 1.27))))
        )
        (pin passive line (at -5.08 -2.54 0) (length 3.81)
          (name "Pin_2" (effects (font (size 1.27 1.27))))
          (number "2" (effects (font (size 1.27 1.27))))
        )
      )
    )
    (symbol "Converter_ACDC:HS-40012" (in_bom yes) (on_board yes)
      (property "Reference" "PS" (id 0) (at 0 5.08 0)
        (effects (font (size 1.27 1.27)))
      )
      (property "Value" "HS-40012" (id 1) (at 0 -5.08 0)
        (effects (font (size 1.27 1.27)))
      )
      (property "Footprint" "Converter_ACDC:Converter_ACDC_Hahn_HS-400xx_THT" (id 2) (at 0 -7.62 0)
        (effects (font (size 1.27 1.27)) hide)
      )
      (property "Datasheet" "http://www.tme.eu/de/Document/221b247820f4fbb72e0cbc1ee10acb85/HS40012.pdf" (id 3) (at 0 -10.16 0)
        (effects (font (size 1.27 1.27)) hide)
      )
      (property "ki_keywords" "12V 3W AC-DC module power supply" (id 4) (at 0 0 0)
        (effects (font (size 1.27 1.27)) hide)
      )
      (property "ki_description" "12V, 3W, AC-DC module power supply, Hahn" (id 5) (at 0 0 0)
        (effects (font (size 1.27 1.27)) hide)
      )
      (property "ki_fp_filters" "Converter*ACDC*Hahn*HS*400xx*" (id 6) (at 0 0 0)
        (effects (font (size 1.27 1.27)) hide)
      )
      (symbol "HS-40012_0_1"
        (rectangle (start -7.62 3.81) (end 7.62 -3.81)
          (stroke (width 0.254) (type default) (color 0 0 0 0))
          (fill (type background))
        )
        (arc (start -5.334 0.635) (mid -4.699 0.2495) (end -4.064 0.635)
          (stroke (width 0) (type default) (color 0 0 0 0))
          (fill (type none))
        )
        (arc (start -2.794 0.635) (mid -3.429 1.0072) (end -4.064 0.635)
          (stroke (width 0) (type default) (color 0 0 0 0))
          (fill (type none))
        )
        (polyline
          (pts
            (xy -5.334 -0.635)
            (xy -2.794 -0.635)
          )
          (stroke (width 0) (type default) (color 0 0 0 0))
          (fill (type none))
        )
        (polyline
          (pts
            (xy 2.794 -0.635)
            (xy 5.334 -0.635)
          )
          (stroke (width 0) (type default) (color 0 0 0 0))
          (fill (type none))
        )
        (polyline
          (pts
            (xy 2.794 0.635)
            (xy 3.302 0.635)
          )
          (stroke (width 0) (type default) (color 0 0 0 0))
          (fill (type none))
        )
        (polyline
          (pts
            (xy 3.81 0.635)
            (xy 4.318 0.635)
          )
          (stroke (width 0) (type default) (color 0 0 0 0))
          (fill (type none))
        )
        (polyline
          (pts
            (xy 4.826 0.635)
            (xy 5.334 0.635)
          )
          (stroke (width 0) (type default) (color 0 0 0 0))
          (fill (type none))
        )
      )
      (symbol "HS-40012_1_1"
        (polyline
          (pts
            (xy 0 -1.27)
            (xy 0 -2.54)
          )
          (stroke (width 0) (type default) (color 0 0 0 0))
          (fill (type none))
        )
        (polyline
          (pts
            (xy 0 1.27)
            (xy 0 0)
          )
          (stroke (width 0) (type default) (color 0 0 0 0))
          (fill (type none))
        )
        (polyline
          (pts
            (xy 0 3.81)
            (xy 0 2.54)
          )
          (stroke (width 0) (type default) (color 0 0 0 0))
          (fill (type none))
        )
        (pin power_in line (at -10.16 -2.54 0) (length 2.54)
          (name "AC/N" (effects (font (size 1.27 1.27))))
          (number "1" (effects (font (size 1.27 1.27))))
        )
        (pin power_in line (at -10.16 2.54 0) (length 2.54)
          (name "AC/L" (effects (font (size 1.27 1.27))))
          (number "5" (effects (font (size 1.27 1.27))))
        )
        (pin power_out line (at 10.16 2.54 180) (length 2.54)
          (name "+Vout" (effects (font (size 1.27 1.27))))
          (number "7" (effects (font (size 1.27 1.27))))
        )
        (pin power_out line (at 10.16 -2.54 180) (length 2.54)
          (name "-Vout" (effects (font (size 1.27 1.27))))
          (number "9" (effects (font (size 1.27 1.27))))
        )
      )
    )
    (symbol "Relay_SolidState:S102S01" (in_bom yes) (on_board yes)
      (property "Reference" "U" (id 0) (at -5.08 5.08 0)
        (effects (font (size 1.27 1.27)) (justify left))
      )
      (property "Value" "S102S01" (id 1) (at 0 5.08 0)
        (effects (font (size 1.27 1.27)) (justify left))
      )
      (property "Footprint" "Package_SIP:SIP4_Sharp-SSR_P7.62mm_Straight" (id 2) (at -5.08 -5.08 0)
        (effects (font (size 1.27 1.27) italic) (justify left) hide)
      )
      (property "Datasheet" "http://www.sharp-world.com/products/device/lineup/data/pdf/datasheet/s102s01_e.pdf" (id 3) (at 0 0 0)
        (effects (font (size 1.27 1.27)) (justify left) hide)
      )
      (property "ki_keywords" "Opto-Triac Opto Triac Random Phase Solid State Relays" (id 4) (at 0 0 0)
        (effects (font (size 1.27 1.27)) hide)
      )
      (property "ki_description" "Random Phase Opto-Triac, Vdrm 400V, Ift 8mA, IT 8A" (id 5) (at 0 0 0)
        (effects (font (size 1.27 1.27)) hide)
      )
      (property "ki_fp_filters" "SIP4*Sharp*SSR*P7.62mm*" (id 6) (at 0 0 0)
        (effects (font (size 1.27 1.27)) hide)
      )
      (symbol "S102S01_0_1"
        (rectangle (start -5.08 3.81) (end 5.08 -3.81)
          (stroke (width 0.254) (type default) (color 0 0 0 0))
          (fill (type background))
        )
        (polyline
          (pts
            (xy -3.175 -0.635)
            (xy -1.905 -0.635)
          )
          (stroke (width 0) (type default) (color 0 0 0 0))
          (fill (type none))
        )
        (polyline
          (pts
            (xy 1.524 -0.635)
            (xy 1.524 0.635)
          )
          (stroke (width 0) (type default) (color 0 0 0 0))
          (fill (type none))
        )
        (polyline
          (pts
            (xy 3.048 0.635)
            (xy 3.048 -0.635)
          )
          (stroke (width 0) (type default) (color 0 0 0 0))
          (fill (type none))
        )
        (polyline
          (pts
            (xy 2.286 -0.635)
            (xy 2.286 -2.54)
            (xy 5.08 -2.54)
          )
          (stroke (width 0) (type default) (color 0 0 0 0))
          (fill (type none))
        )
        (polyline
          (pts
            (xy 2.286 0.635)
            (xy 2.286 2.54)
            (xy 5.08 2.54)
          )
          (stroke (width 0) (type default) (color 0 0 0 0))
          (fill (type none))
        )
        (polyline
          (pts
            (xy -5.08 2.54)
            (xy -2.54 2.54)
            (xy -2.54 -2.54)
            (xy -5.08 -2.54)
          )
          (stroke (width 0) (type default) (color 0 0 0 0))
          (fill (type none))
        )
        (polyline
          (pts
            (xy -2.54 -0.635)
            (xy -3.175 0.635)
            (xy -1.905 0.635)
            (xy -2.54 -0.635)
          )
          (stroke (width 0) (type default) (color 0 0 0 0))
          (fill (type none))
        )
        (polyline
          (pts
            (xy 0.889 -0.635)
            (xy 3.683 -0.635)
            (xy 3.048 0.635)
            (xy 2.413 -0.635)
          )
          (stroke (width 0) (type default) (color 0 0 0 0))
          (fill (type none))
        )
        (polyline
          (pts
            (xy 3.683 0.635)
            (xy 0.889 0.635)
            (xy 1.524 -0.635)
            (xy 2.159 0.635)
          )
          (stroke (width 0) (type default) (color 0 0 0 0))
          (fill (type none))
        )
        (polyline
          (pts
            (xy -1.143 -0.508)
            (xy 0.127 -0.508)
            (xy -0.254 -0.635)
            (xy -0.254 -0.381)
            (xy 0.127 -0.508)
          )
          (stroke (width 0) (type default) (color 0 0 0 0))
          (fill (type none))
        )
        (polyline
          (pts
            (xy -1.143 0.508)
            (xy 0.127 0.508)
            (xy -0.254 0.381)
            (xy -0.254 0.635)
            (xy 0.127 0.508)
          )
          (stroke (width 0) (type default) (color 0 0 0 0))
          (fill (type none))
        )
      )
      (symbol "S102S01_1_1"
        (pin passive line (at 7.62 2.54 180) (length 2.54)
          (name "~" (effects (font (size 1.27 1.27))))
          (number "1" (effects (font (size 1.27 1.27))))
        )
        (pin passive line (at 7.62 -2.54 180) (length 2.54)
          (name "~" (effects (font (size 1.27 1.27))))
          (number "2" (effects (font (size 1.27 1.27))))
        )
        (pin passive line (at -7.62 2.54 0) (length 2.54)
          (name "~" (effects (font (size 1.27 1.27))))
          (number "3" (effects (font (size 1.27 1.27))))
        )
        (pin passive line (at -7.62 -2.54 0) (length 2.54)
          (name "~" (effects (font (size 1.27 1.27))))
          (number "4" (effects (font (size 1.27 1.27))))
        )
      )
    )
    (symbol "connector:PWR4_emit" (pin_names (offset 1.016)) (in_bom yes) (on_board yes)
      (property "Reference" "J" (id 0) (at 5.334 5.08 0)
        (effects (font (size 1.27 1.27)))
      )
      (property "Value" "PWR4_emit" (id 1) (at 0 -6.35 0)
        (effects (font (size 1.27 1.27)))
      )
      (property "Footprint" "connector:DIN4" (id 2) (at -5.08 -2.54 0)
        (effects (font (size 1.27 1.27)) hide)
      )
      (property "Datasheet" "http://www.mouser.com/ds/2/18/40_c091_abd_e-75918.pdf" (id 3) (at 0 0 0)
        (effects (font (size 1.27 1.27)) hide)
      )
      (property "ki_keywords" "circular DIN connector" (id 4) (at 0 0 0)
        (effects (font (size 1.27 1.27)) hide)
      )
      (property "ki_description" "4-pin DIN connector" (id 5) (at 0 0 0)
        (effects (font (size 1.27 1.27)) hide)
      )
      (property "ki_fp_filters" "DIN*" (id 6) (at 0 0 0)
        (effects (font (size 1.27 1.27)) hide)
      )
      (symbol "PWR4_emit_0_1"
        (arc (start -5.08 0) (mid -3.8597 -3.3379) (end -0.762 -5.08)
          (stroke (width 0.254) (type default) (color 0 0 0 0))
          (fill (type none))
        )
        (circle (center -3.048 -1.016) (radius 0.508)
          (stroke (width 0) (type default) (color 0 0 0 0))
          (fill (type none))
        )
        (circle (center -2.032 2.54) (radius 0.508)
          (stroke (width 0) (type default) (color 0 0 0 0))
          (fill (type none))
        )
        (polyline
          (pts
            (xy -3.556 -1.016)
            (xy -5.08 0)
          )
          (stroke (width 0) (type default) (color 0 0 0 0))
          (fill (type none))
        )
        (polyline
          (pts
            (xy 5.08 0)
            (xy 3.556 -1.016)
          )
          (stroke (width 0) (type default) (color 0 0 0 0))
          (fill (type none))
        )
        (polyline
          (pts
            (xy -2.54 5.08)
            (xy -2.54 4.318)
            (xy -2.286 3.048)
          )
          (stroke (width 0) (type default) (color 0 0 0 0))
          (fill (type none))
        )
        (polyline
          (pts
            (xy 2.54 5.08)
            (xy 2.54 4.318)
            (xy 2.286 3.048)
          )
          (stroke (width 0) (type default) (color 0 0 0 0))
          (fill (type none))
        )
        (polyline
          (pts
            (xy -0.762 -4.953)
            (xy -0.762 -4.191)
            (xy 0.762 -4.191)
            (xy 0.762 -4.953)
          )
          (stroke (width 0.254) (type default) (color 0 0 0 0))
          (fill (type none))
        )
        (arc (start 0.762 -5.08) (mid 3.8673 -3.3444) (end 5.08 0)
          (stroke (width 0.254) (type default) (color 0 0 0 0))
          (fill (type none))
        )
        (circle (center 2.032 2.54) (radius 0.508)
          (stroke (width 0) (type default) (color 0 0 0 0))
          (fill (type none))
        )
        (circle (center 3.048 -1.016) (radius 0.508)
          (stroke (width 0) (type default) (color 0 0 0 0))
          (fill (type none))
        )
        (arc (start 5.08 0) (mid 0 5.08) (end -5.08 0)
          (stroke (width 0.254) (type default) (color 0 0 0 0))
          (fill (type none))
        )
      )
      (symbol "PWR4_emit_1_1"
        (pin power_out line (at -7.62 0 0) (length 2.54)
          (name "Vcc" (effects (font (size 1.27 1.27))))
          (number "1" (effects (font (size 1.27 1.27))))
        )
        (pin power_out line (at -2.54 7.62 270) (length 2.54)
          (name "GND" (effects (font (size 1.27 1.27))))
          (number "2" (effects (font (size 1.27 1.27))))
        )
        (pin passive line (at 2.54 7.62 270) (length 2.54)
          (name "~" (effects (font (size 1.27 1.27))))
          (number "3" (effects (font (size 1.27 1.27))))
        )
        (pin passive line (at 7.62 0 180) (length 2.54)
          (name "~" (effects (font (size 1.27 1.27))))
          (number "4" (effects (font (size 1.27 1.27))))
        )
      )
    )
    (symbol "power:+5V" (power) (pin_names (offset 0)) (in_bom yes) (on_board yes)
      (property "Reference" "#PWR" (id 0) (at 0 -3.81 0)
        (effects (font (size 1.27 1.27)) hide)
      )
      (property "Value" "+5V" (id 1) (at 0 3.556 0)
        (effects (font (size 1.27 1.27)))
      )
      (property "Footprint" "" (id 2) (at 0 0 0)
        (effects (font (size 1.27 1.27)) hide)
      )
      (property "Datasheet" "" (id 3) (at 0 0 0)
        (effects (font (size 1.27 1.27)) hide)
      )
      (property "ki_keywords" "power-flag" (id 4) (at 0 0 0)
        (effects (font (size 1.27 1.27)) hide)
      )
      (property "ki_description" "Power symbol creates a global label with name \"+5V\"" (id 5) (at 0 0 0)
        (effects (font (size 1.27 1.27)) hide)
      )
      (symbol "+5V_0_1"
        (polyline
          (pts
            (xy -0.762 1.27)
            (xy 0 2.54)
          )
          (stroke (width 0) (type default) (color 0 0 0 0))
          (fill (type none))
        )
        (polyline
          (pts
            (xy 0 0)
            (xy 0 2.54)
          )
          (stroke (width 0) (type default) (color 0 0 0 0))
          (fill (type none))
        )
        (polyline
          (pts
            (xy 0 2.54)
            (xy 0.762 1.27)
          )
          (stroke (width 0) (type default) (color 0 0 0 0))
          (fill (type none))
        )
      )
      (symbol "+5V_1_1"
        (pin power_in line (at 0 0 90) (length 0) hide
          (name "+5V" (effects (font (size 1.27 1.27))))
          (number "1" (effects (font (size 1.27 1.27))))
        )
      )
    )
    (symbol "power:GND" (power) (pin_names (offset 0)) (in_bom yes) (on_board yes)
      (property "Reference" "#PWR" (id 0) (at 0 -6.35 0)
        (effects (font (size 1.27 1.27)) hide)
      )
      (property "Value" "GND" (id 1) (at 0 -3.81 0)
        (effects (font (size 1.27 1.27)))
      )
      (property "Footprint" "" (id 2) (at 0 0 0)
        (effects (font (size 1.27 1.27)) hide)
      )
      (property "Datasheet" "" (id 3) (at 0 0 0)
        (effects (font (size 1.27 1.27)) hide)
      )
      (property "ki_keywords" "power-flag" (id 4) (at 0 0 0)
        (effects (font (size 1.27 1.27)) hide)
      )
      (property "ki_description" "Power symbol creates a global label with name \"GND\" , ground" (id 5) (at 0 0 0)
        (effects (font (size 1.27 1.27)) hide)
      )
      (symbol "GND_0_1"
        (polyline
          (pts
            (xy 0 0)
            (xy 0 -1.27)
            (xy 1.27 -1.27)
            (xy 0 -2.54)
            (xy -1.27 -1.27)
            (xy 0 -1.27)
          )
          (stroke (width 0) (type default) (color 0 0 0 0))
          (fill (type none))
        )
      )
      (symbol "GND_1_1"
        (pin power_in line (at 0 0 270) (length 0) hide
          (name "GND" (effects (font (size 1.27 1.27))))
          (number "1" (effects (font (size 1.27 1.27))))
        )
      )
    )
    (symbol "power:GNDA" (power) (pin_names (offset 0)) (in_bom yes) (on_board yes)
      (property "Reference" "#PWR" (id 0) (at 0 -6.35 0)
        (effects (font (size 1.27 1.27)) hide)
      )
      (property "Value" "GNDA" (id 1) (at 0 -3.81 0)
        (effects (font (size 1.27 1.27)))
      )
      (property "Footprint" "" (id 2) (at 0 0 0)
        (effects (font (size 1.27 1.27)) hide)
      )
      (property "Datasheet" "" (id 3) (at 0 0 0)
        (effects (font (size 1.27 1.27)) hide)
      )
      (property "ki_keywords" "power-flag" (id 4) (at 0 0 0)
        (effects (font (size 1.27 1.27)) hide)
      )
      (property "ki_description" "Power symbol creates a global label with name \"GNDA\" , analog ground" (id 5) (at 0 0 0)
        (effects (font (size 1.27 1.27)) hide)
      )
      (symbol "GNDA_0_1"
        (polyline
          (pts
            (xy 0 0)
            (xy 0 -1.27)
            (xy 1.27 -1.27)
            (xy 0 -2.54)
            (xy -1.27 -1.27)
            (xy 0 -1.27)
          )
          (stroke (width 0) (type default) (color 0 0 0 0))
          (fill (type none))
        )
      )
      (symbol "GNDA_1_1"
        (pin power_in line (at 0 0 270) (length 0) hide
          (name "GNDA" (effects (font (size 1.27 1.27))))
          (number "1" (effects (font (size 1.27 1.27))))
        )
      )
    )
    (symbol "power:VAC" (power) (pin_names (offset 0)) (in_bom yes) (on_board yes)
      (property "Reference" "#PWR" (id 0) (at 0 -2.54 0)
        (effects (font (size 1.27 1.27)) hide)
      )
      (property "Value" "VAC" (id 1) (at 0 6.35 0)
        (effects (font (size 1.27 1.27)))
      )
      (property "Footprint" "" (id 2) (at 0 0 0)
        (effects (font (size 1.27 1.27)) hide)
      )
      (property "Datasheet" "" (id 3) (at 0 0 0)
        (effects (font (size 1.27 1.27)) hide)
      )
      (property "ki_keywords" "power-flag" (id 4) (at 0 0 0)
        (effects (font (size 1.27 1.27)) hide)
      )
      (property "ki_description" "Power symbol creates a global label with name \"VAC\"" (id 5) (at 0 0 0)
        (effects (font (size 1.27 1.27)) hide)
      )
      (symbol "VAC_0_1"
        (polyline
          (pts
            (xy 0 0)
            (xy 0 1.27)
          )
          (stroke (width 0) (type default) (color 0 0 0 0))
          (fill (type none))
        )
        (arc (start 0 3.175) (mid -0.635 3.81) (end -1.27 3.175)
          (stroke (width 0.254) (type default) (color 0 0 0 0))
          (fill (type none))
        )
        (arc (start 0 3.175) (mid 0.635 2.54) (end 1.27 3.175)
          (stroke (width 0.254) (type default) (color 0 0 0 0))
          (fill (type none))
        )
        (circle (center 0 3.175) (radius 1.905)
          (stroke (width 0.254) (type default) (color 0 0 0 0))
          (fill (type none))
        )
      )
      (symbol "VAC_1_1"
        (pin power_in line (at 0 0 90) (length 0) hide
          (name "VAC" (effects (font (size 1.27 1.27))))
          (number "1" (effects (font (size 1.27 1.27))))
        )
      )
    )
  )


  (wire (pts (xy 135.89 104.14) (xy 140.97 104.14))
    (stroke (width 0) (type default) (color 0 0 0 0))
    (uuid 065d5db9-7fae-42c6-8577-9256d401930f)
  )
  (wire (pts (xy 96.52 95.25) (xy 96.52 100.33))
    (stroke (width 0) (type default) (color 0 0 0 0))
    (uuid 08f972f4-5900-4a21-8e09-0bbca3191060)
  )
  (wire (pts (xy 54.61 104.14) (xy 58.42 104.14))
    (stroke (width 0) (type default) (color 0 0 0 0))
    (uuid 1224c23b-7ca6-4e0f-b792-2996b4341fb7)
  )
  (wire (pts (xy 106.68 124.46) (xy 120.65 124.46))
    (stroke (width 0) (type default) (color 0 0 0 0))
    (uuid 29a7b93d-c463-4fbb-8c84-c3640a42d1f7)
  )
  (wire (pts (xy 78.74 104.14) (xy 82.55 104.14))
    (stroke (width 0) (type default) (color 0 0 0 0))
    (uuid 45e0a447-b0c6-4c9f-af14-8ee1c8dcdeec)
  )
  (wire (pts (xy 78.74 109.22) (xy 78.74 114.3))
    (stroke (width 0) (type default) (color 0 0 0 0))
    (uuid 514cfe8a-5bb0-43cf-8d7e-ea39f999b827)
  )
  (wire (pts (xy 101.6 100.33) (xy 101.6 99.06))
    (stroke (width 0) (type default) (color 0 0 0 0))
    (uuid 54676216-85c7-4724-b155-476fc6937c1a)
  )
  (wire (pts (xy 135.89 99.06) (xy 140.97 99.06))
    (stroke (width 0) (type default) (color 0 0 0 0))
    (uuid 57d72753-ac98-4d26-a7e5-029e4fc09719)
  )
  (wire (pts (xy 140.97 93.98) (xy 140.97 96.52))
    (stroke (width 0) (type default) (color 0 0 0 0))
    (uuid 5ec86b18-885b-45cd-a6bc-9821f8c40a0b)
  )
  (wire (pts (xy 116.84 129.54) (xy 120.65 129.54))
    (stroke (width 0) (type default) (color 0 0 0 0))
    (uuid 6c97b18c-b652-4528-8004-b3a3552bcbed)
  )
  (wire (pts (xy 140.97 119.38) (xy 140.97 121.92))
    (stroke (width 0) (type default) (color 0 0 0 0))
    (uuid 6cd3428e-1572-4ec7-b874-df02d24895c0)
  )
  (wire (pts (xy 54.61 109.22) (xy 58.42 109.22))
    (stroke (width 0) (type default) (color 0 0 0 0))
    (uuid 954c57be-5c3d-4b92-8548-b1250dd503db)
  )
  (wire (pts (xy 116.84 104.14) (xy 120.65 104.14))
    (stroke (width 0) (type default) (color 0 0 0 0))
    (uuid e6ce777f-9aac-4e51-a8e6-2d96e31bf4e1)
  )
  (wire (pts (xy 106.68 107.95) (xy 106.68 124.46))
    (stroke (width 0) (type default) (color 0 0 0 0))
    (uuid e9373cc3-0783-49e9-adae-ed13c20c94f2)
  )
  (wire (pts (xy 135.89 124.46) (xy 140.97 124.46))
    (stroke (width 0) (type default) (color 0 0 0 0))
    (uuid eb283e91-1245-4315-994a-1998b11ced3d)
  )
  (wire (pts (xy 101.6 99.06) (xy 120.65 99.06))
    (stroke (width 0) (type default) (color 0 0 0 0))
    (uuid f162bcba-ac66-4708-9295-93517ebae024)
  )
  (wire (pts (xy 88.9 107.95) (xy 91.44 107.95))
    (stroke (width 0) (type default) (color 0 0 0 0))
    (uuid f323f654-e797-42e7-ab70-73effb049a0c)
  )
  (wire (pts (xy 135.89 129.54) (xy 140.97 129.54))
    (stroke (width 0) (type default) (color 0 0 0 0))
    (uuid fd01b9d8-7731-4c23-b9fa-a791179d9a34)
  )

  (symbol (lib_id "power:GND") (at 116.84 104.14 0) (unit 1)
    (in_bom yes) (on_board yes) (fields_autoplaced)
    (uuid 00b5734d-53d7-4403-9e75-2166b5bb406e)
    (property "Reference" "#PWR0104" (id 0) (at 116.84 110.49 0)
      (effects (font (size 1.27 1.27)) hide)
    )
    (property "Value" "GND" (id 1) (at 116.84 108.7025 0))
    (property "Footprint" "" (id 2) (at 116.84 104.14 0)
      (effects (font (size 1.27 1.27)) hide)
    )
    (property "Datasheet" "" (id 3) (at 116.84 104.14 0)
      (effects (font (size 1.27 1.27)) hide)
    )
    (pin "1" (uuid d6d50d33-e91e-4d4e-94b7-a67cb83f8183))
  )

  (symbol (lib_id "power:+5V") (at 82.55 104.14 0) (unit 1)
    (in_bom yes) (on_board yes) (fields_autoplaced)
    (uuid 25625d99-d45f-4b2f-9e62-009a122611f4)
    (property "Reference" "#PWR0102" (id 0) (at 82.55 107.95 0)
      (effects (font (size 1.27 1.27)) hide)
    )
    (property "Value" "+5V" (id 1) (at 82.55 100.5355 0))
    (property "Footprint" "" (id 2) (at 82.55 104.14 0)
      (effects (font (size 1.27 1.27)) hide)
    )
    (property "Datasheet" "" (id 3) (at 82.55 104.14 0)
      (effects (font (size 1.27 1.27)) hide)
    )
    (pin "1" (uuid a46a2b22-69cf-45fb-b1d2-32ac89bbd3c8))
  )

  (symbol (lib_id "Relay_SolidState:S102S01") (at 128.27 127 0) (unit 1)
    (in_bom yes) (on_board yes) (fields_autoplaced)
    (uuid 41512000-8ddc-4c35-95f9-181a97b6f8de)
    (property "Reference" "U2" (id 0) (at 128.27 119.2235 0))
    (property "Value" "S102S01" (id 1) (at 128.27 121.9986 0))
    (property "Footprint" "Package_SIP:SIP4_Sharp-SSR_P7.62mm_Straight" (id 2) (at 123.19 132.08 0)
      (effects (font (size 1.27 1.27) italic) (justify left) hide)
    )
    (property "Datasheet" "http://www.sharp-world.com/products/device/lineup/data/pdf/datasheet/s102s01_e.pdf" (id 3) (at 128.27 127 0)
      (effects (font (size 1.27 1.27)) (justify left) hide)
    )
    (pin "1" (uuid f59e37a0-83e4-49c9-8f65-5fe074c3ea86))
    (pin "2" (uuid c2b59e2d-0fe7-43e7-af54-44a53e27c754))
    (pin "3" (uuid c3d355e2-5a2e-4900-90d5-2140e7b8830b))
    (pin "4" (uuid e3961296-b4c5-459d-a7b6-a37ca9fc9b04))
  )

  (symbol (lib_id "Connector:Conn_01x02_Female") (at 146.05 121.92 0) (unit 1)
    (in_bom yes) (on_board yes) (fields_autoplaced)
    (uuid 45ea6ab3-3cb0-4e46-bed5-e477df9d634e)
    (property "Reference" "J3" (id 0) (at 146.7612 122.2815 0)
      (effects (font (size 1.27 1.27)) (justify left))
    )
    (property "Value" "Conn_01x02_Female" (id 1) (at 146.7612 125.0566 0)
      (effects (font (size 1.27 1.27)) (justify left))
    )
    (property "Footprint" "" (id 2) (at 146.05 121.92 0)
      (effects (font (size 1.27 1.27)) hide)
    )
    (property "Datasheet" "~" (id 3) (at 146.05 121.92 0)
      (effects (font (size 1.27 1.27)) hide)
    )
    (pin "1" (uuid 7a3c13ae-2e5c-42a2-832c-e8dbe2a3b38a))
    (pin "2" (uuid 05726052-1379-48c0-a22c-b7cb8f740a89))
  )

  (symbol (lib_id "Relay_SolidState:S102S01") (at 128.27 101.6 0) (unit 1)
    (in_bom yes) (on_board yes) (fields_autoplaced)
    (uuid 47957453-fce7-4d98-833c-e34bb8a852a5)
    (property "Reference" "U1" (id 0) (at 128.27 93.8235 0))
    (property "Value" "S102S01" (id 1) (at 128.27 96.5986 0))
    (property "Footprint" "Package_SIP:SIP4_Sharp-SSR_P7.62mm_Straight" (id 2) (at 123.19 106.68 0)
      (effects (font (size 1.27 1.27) italic) (justify left) hide)
    )
    (property "Datasheet" "http://www.sharp-world.com/products/device/lineup/data/pdf/datasheet/s102s01_e.pdf" (id 3) (at 128.27 101.6 0)
      (effects (font (size 1.27 1.27)) (justify left) hide)
    )
    (pin "1" (uuid 5160b3d5-0622-412f-84ed-9900be82a5a6))
    (pin "2" (uuid cfcae4a3-5d05-48fe-9a5f-9dcd4da4bd65))
    (pin "3" (uuid abe3c03e-744a-4406-8e50-6a10745f0c43))
    (pin "4" (uuid 2cb05d43-df82-498c-aae1-4b1a0a350f82))
  )

  (symbol (lib_id "power:VAC") (at 54.61 104.14 0) (unit 1)
    (in_bom yes) (on_board yes) (fields_autoplaced)
    (uuid 624f9c04-0a3b-4bde-9c91-899219f49d93)
    (property "Reference" "#PWR0108" (id 0) (at 54.61 106.68 0)
      (effects (font (size 1.27 1.27)) hide)
    )
    (property "Value" "VAC" (id 1) (at 54.61 97.8685 0))
    (property "Footprint" "" (id 2) (at 54.61 104.14 0)
      (effects (font (size 1.27 1.27)) hide)
    )
    (property "Datasheet" "" (id 3) (at 54.61 104.14 0)
      (effects (font (size 1.27 1.27)) hide)
    )
    (pin "1" (uuid 0e9caed0-f186-420d-ab2f-e114d7229c6b))
  )

  (symbol (lib_id "power:+5V") (at 88.9 107.95 0) (unit 1)
    (in_bom yes) (on_board yes)
    (uuid 6dbeb271-70cf-48a4-af15-4f29601b6b93)
    (property "Reference" "#PWR0101" (id 0) (at 88.9 111.76 0)
      (effects (font (size 1.27 1.27)) hide)
    )
    (property "Value" "+5V" (id 1) (at 88.9 104.3455 0))
    (property "Footprint" "" (id 2) (at 88.9 107.95 0)
      (effects (font (size 1.27 1.27)) hide)
    )
    (property "Datasheet" "" (id 3) (at 88.9 107.95 0)
      (effects (font (size 1.27 1.27)) hide)
    )
    (pin "1" (uuid 511ca6ca-1c86-41e8-b3f2-11a64d5df8db))
  )

  (symbol (lib_id "power:VAC") (at 140.97 93.98 0) (unit 1)
    (in_bom yes) (on_board yes) (fields_autoplaced)
    (uuid 85ef3c4f-43bc-4c2e-9324-e4dc9952b10e)
    (property "Reference" "#PWR0106" (id 0) (at 140.97 96.52 0)
      (effects (font (size 1.27 1.27)) hide)
    )
    (property "Value" "VAC" (id 1) (at 140.97 87.7085 0))
    (property "Footprint" "" (id 2) (at 140.97 93.98 0)
      (effects (font (size 1.27 1.27)) hide)
    )
    (property "Datasheet" "" (id 3) (at 140.97 93.98 0)
      (effects (font (size 1.27 1.27)) hide)
    )
    (pin "1" (uuid 837310d0-6a75-453d-83cf-63f4ab5d7a9a))
  )

  (symbol (lib_id "power:GNDA") (at 140.97 129.54 0) (unit 1)
    (in_bom yes) (on_board yes) (fields_autoplaced)
    (uuid 8bd1f8b8-9f6d-4616-b562-c4d4755f6350)
    (property "Reference" "#PWR0111" (id 0) (at 140.97 135.89 0)
      (effects (font (size 1.27 1.27)) hide)
    )
    (property "Value" "GNDA" (id 1) (at 140.97 134.1025 0))
    (property "Footprint" "" (id 2) (at 140.97 129.54 0)
      (effects (font (size 1.27 1.27)) hide)
    )
    (property "Datasheet" "" (id 3) (at 140.97 129.54 0)
      (effects (font (size 1.27 1.27)) hide)
    )
    (pin "1" (uuid c5ba0981-97f4-40a6-8ee0-b9da87ffc2ca))
  )

  (symbol (lib_id "power:GNDA") (at 140.97 104.14 0) (unit 1)
    (in_bom yes) (on_board yes) (fields_autoplaced)
    (uuid 8ca2c50b-bf3a-438b-a227-f2ee9e498fd9)
    (property "Reference" "#PWR0105" (id 0) (at 140.97 110.49 0)
      (effects (font (size 1.27 1.27)) hide)
    )
    (property "Value" "GNDA" (id 1) (at 140.97 108.7025 0))
    (property "Footprint" "" (id 2) (at 140.97 104.14 0)
      (effects (font (size 1.27 1.27)) hide)
    )
    (property "Datasheet" "" (id 3) (at 140.97 104.14 0)
      (effects (font (size 1.27 1.27)) hide)
    )
    (pin "1" (uuid 3214ed34-563c-460f-89e6-d8867c1cc4d2))
  )

  (symbol (lib_id "Connector:Conn_01x02_Female") (at 146.05 96.52 0) (unit 1)
    (in_bom yes) (on_board yes) (fields_autoplaced)
    (uuid 9bb33d73-8bf9-4d7d-88e5-58026d5dbe32)
    (property "Reference" "J2" (id 0) (at 146.7612 96.8815 0)
      (effects (font (size 1.27 1.27)) (justify left))
    )
    (property "Value" "Conn_01x02_Female" (id 1) (at 146.7612 99.6566 0)
      (effects (font (size 1.27 1.27)) (justify left))
    )
    (property "Footprint" "" (id 2) (at 146.05 96.52 0)
      (effects (font (size 1.27 1.27)) hide)
    )
    (property "Datasheet" "~" (id 3) (at 146.05 96.52 0)
      (effects (font (size 1.27 1.27)) hide)
    )
    (pin "1" (uuid 2195e2f2-da04-4bd6-a319-2c21e265eda5))
    (pin "2" (uuid b5a18fcc-9f5b-4e8c-834d-52e7758a3c86))
  )

  (symbol (lib_id "power:GND") (at 116.84 129.54 0) (unit 1)
    (in_bom yes) (on_board yes) (fields_autoplaced)
    (uuid a810a111-b6b4-41e7-9d45-9c701a5edf95)
    (property "Reference" "#PWR0103" (id 0) (at 116.84 135.89 0)
      (effects (font (size 1.27 1.27)) hide)
    )
    (property "Value" "GND" (id 1) (at 116.84 134.1025 0))
    (property "Footprint" "" (id 2) (at 116.84 129.54 0)
      (effects (font (size 1.27 1.27)) hide)
    )
    (property "Datasheet" "" (id 3) (at 116.84 129.54 0)
      (effects (font (size 1.27 1.27)) hide)
    )
    (pin "1" (uuid bb169485-ea91-48f0-84f9-8d0dc38623fa))
  )

  (symbol (lib_id "power:GND") (at 78.74 114.3 0) (unit 1)
    (in_bom yes) (on_board yes) (fields_autoplaced)
    (uuid abc47acb-1014-4dc0-b4ea-4c6ec1f014cb)
    (property "Reference" "#PWR0107" (id 0) (at 78.74 120.65 0)
      (effects (font (size 1.27 1.27)) hide)
    )
    (property "Value" "GND" (id 1) (at 78.74 118.8625 0))
    (property "Footprint" "" (id 2) (at 78.74 114.3 0)
      (effects (font (size 1.27 1.27)) hide)
    )
    (property "Datasheet" "" (id 3) (at 78.74 114.3 0)
      (effects (font (size 1.27 1.27)) hide)
    )
    (pin "1" (uuid 46fd1604-52c4-4275-97de-e76c2fafee1c))
  )

  (symbol (lib_id "Converter_ACDC:HS-40012") (at 68.58 106.68 0) (unit 1)
    (in_bom yes) (on_board yes) (fields_autoplaced)
    (uuid b9cf334a-4975-4133-9f18-324d40fb7d09)
    (property "Reference" "PS1" (id 0) (at 68.58 98.9035 0))
    (property "Value" "HS-40012" (id 1) (at 68.58 101.6786 0))
    (property "Footprint" "Converter_ACDC:Converter_ACDC_Hahn_HS-400xx_THT" (id 2) (at 68.58 114.3 0)
      (effects (font (size 1.27 1.27)) hide)
    )
    (property "Datasheet" "http://www.tme.eu/de/Document/221b247820f4fbb72e0cbc1ee10acb85/HS40012.pdf" (id 3) (at 68.58 116.84 0)
      (effects (font (size 1.27 1.27)) hide)
    )
    (pin "1" (uuid d3ee6eac-d3bf-4f23-b360-491cc573114b))
    (pin "5" (uuid 7ae22fb7-ff4b-4829-9c6e-5be5a40c61c9))
    (pin "7" (uuid f37159fc-72e9-43ee-8500-3ad58de797db))
    (pin "9" (uuid cde024c4-a721-4c4e-b010-812640b4dd04))
  )

  (symbol (lib_id "power:VAC") (at 140.97 119.38 0) (unit 1)
    (in_bom yes) (on_board yes) (fields_autoplaced)
    (uuid c170e697-27bf-4c9e-ab08-3d3c6779c32c)
    (property "Reference" "#PWR0112" (id 0) (at 140.97 121.92 0)
      (effects (font (size 1.27 1.27)) hide)
    )
    (property "Value" "VAC" (id 1) (at 140.97 113.1085 0))
    (property "Footprint" "" (id 2) (at 140.97 119.38 0)
      (effects (font (size 1.27 1.27)) hide)
    )
    (property "Datasheet" "" (id 3) (at 140.97 119.38 0)
      (effects (font (size 1.27 1.27)) hide)
    )
    (pin "1" (uuid 1c82e014-bb02-4ca8-8ed9-58a81ffec9b3))
  )

  (symbol (lib_id "power:GNDA") (at 54.61 109.22 0) (unit 1)
    (in_bom yes) (on_board yes) (fields_autoplaced)
    (uuid c89cd7c2-7158-4548-bb44-05bc4e418a7e)
    (property "Reference" "#PWR0109" (id 0) (at 54.61 115.57 0)
      (effects (font (size 1.27 1.27)) hide)
    )
    (property "Value" "GNDA" (id 1) (at 54.61 113.7825 0))
    (property "Footprint" "" (id 2) (at 54.61 109.22 0)
      (effects (font (size 1.27 1.27)) hide)
    )
    (property "Datasheet" "" (id 3) (at 54.61 109.22 0)
      (effects (font (size 1.27 1.27)) hide)
    )
    (pin "1" (uuid 7374d825-d6c9-4565-9cd9-8a3c27145ee7))
  )

  (symbol (lib_id "connector:PWR4_emit") (at 99.06 107.95 0) (unit 1)
    (in_bom yes) (on_board yes) (fields_autoplaced)
    (uuid ccc38513-0f34-4f05-9f98-ef75de618c91)
    (property "Reference" "J1" (id 0) (at 99.0601 115.1795 0))
    (property "Value" "PWR4_emit" (id 1) (at 99.0601 117.9546 0))
    (property "Footprint" "connector:DIN4" (id 2) (at 93.98 110.49 0)
      (effects (font (size 1.27 1.27)) hide)
    )
    (property "Datasheet" "http://www.mouser.com/ds/2/18/40_c091_abd_e-75918.pdf" (id 3) (at 99.06 107.95 0)
      (effects (font (size 1.27 1.27)) hide)
    )
    (pin "1" (uuid 72b286fc-dc7e-4ad5-b2dc-5afc9698e4b6))
    (pin "2" (uuid d1bcc174-49ee-47dc-8537-17590e91bff5))
    (pin "3" (uuid c63ea0fb-2c6c-4f97-86fb-617c2560809e))
    (pin "4" (uuid 8104aa50-a939-4715-a570-a261cb482238))
  )

  (symbol (lib_id "power:GND") (at 96.52 95.25 180) (unit 1)
    (in_bom yes) (on_board yes) (fields_autoplaced)
    (uuid e1ab8f9f-19cc-4c98-a11e-6925638e1584)
    (property "Reference" "#PWR0110" (id 0) (at 96.52 88.9 0)
      (effects (font (size 1.27 1.27)) hide)
    )
    (property "Value" "GND" (id 1) (at 96.52 91.6455 0))
    (property "Footprint" "" (id 2) (at 96.52 95.25 0)
      (effects (font (size 1.27 1.27)) hide)
    )
    (property "Datasheet" "" (id 3) (at 96.52 95.25 0)
      (effects (font (size 1.27 1.27)) hide)
    )
    (pin "1" (uuid 7068626d-7f23-4875-a6f9-39025b8514cc))
  )

  (sheet_instances
    (path "/" (page "1"))
  )

  (symbol_instances
    (path "/6dbeb271-70cf-48a4-af15-4f29601b6b93"
      (reference "#PWR0101") (unit 1) (value "+5V") (footprint "")
    )
    (path "/25625d99-d45f-4b2f-9e62-009a122611f4"
      (reference "#PWR0102") (unit 1) (value "+5V") (footprint "")
    )
    (path "/a810a111-b6b4-41e7-9d45-9c701a5edf95"
      (reference "#PWR0103") (unit 1) (value "GND") (footprint "")
    )
    (path "/00b5734d-53d7-4403-9e75-2166b5bb406e"
      (reference "#PWR0104") (unit 1) (value "GND") (footprint "")
    )
    (path "/8ca2c50b-bf3a-438b-a227-f2ee9e498fd9"
      (reference "#PWR0105") (unit 1) (value "GNDA") (footprint "")
    )
    (path "/85ef3c4f-43bc-4c2e-9324-e4dc9952b10e"
      (reference "#PWR0106") (unit 1) (value "VAC") (footprint "")
    )
    (path "/abc47acb-1014-4dc0-b4ea-4c6ec1f014cb"
      (reference "#PWR0107") (unit 1) (value "GND") (footprint "")
    )
    (path "/624f9c04-0a3b-4bde-9c91-899219f49d93"
      (reference "#PWR0108") (unit 1) (value "VAC") (footprint "")
    )
    (path "/c89cd7c2-7158-4548-bb44-05bc4e418a7e"
      (reference "#PWR0109") (unit 1) (value "GNDA") (footprint "")
    )
    (path "/e1ab8f9f-19cc-4c98-a11e-6925638e1584"
      (reference "#PWR0110") (unit 1) (value "GND") (footprint "")
    )
    (path "/8bd1f8b8-9f6d-4616-b562-c4d4755f6350"
      (reference "#PWR0111") (unit 1) (value "GNDA") (footprint "")
    )
    (path "/c170e697-27bf-4c9e-ab08-3d3c6779c32c"
      (reference "#PWR0112") (unit 1) (value "VAC") (footprint "")
    )
    (path "/ccc38513-0f34-4f05-9f98-ef75de618c91"
      (reference "J1") (unit 1) (value "PWR4_emit") (footprint "connector:DIN4")
    )
    (path "/9bb33d73-8bf9-4d7d-88e5-58026d5dbe32"
      (reference "J2") (unit 1) (value "Conn_01x02_Female") (footprint "")
    )
    (path "/45ea6ab3-3cb0-4e46-bed5-e477df9d634e"
      (reference "J3") (unit 1) (value "Conn_01x02_Female") (footprint "")
    )
    (path "/b9cf334a-4975-4133-9f18-324d40fb7d09"
      (reference "PS1") (unit 1) (value "HS-40012") (footprint "Converter_ACDC:Converter_ACDC_Hahn_HS-400xx_THT")
    )
    (path "/47957453-fce7-4d98-833c-e34bb8a852a5"
      (reference "U1") (unit 1) (value "S102S01") (footprint "Package_SIP:SIP4_Sharp-SSR_P7.62mm_Straight")
    )
    (path "/41512000-8ddc-4c35-95f9-181a97b6f8de"
      (reference "U2") (unit 1) (value "S102S01") (footprint "Package_SIP:SIP4_Sharp-SSR_P7.62mm_Straight")
    )
  )
)
